0x560 (size: 3)
0x568 (size: 3)
0x573 (size: 2)
0x579 (size: 1)
0x57d (size: 4)
0x586 (size: 4)
0x591 (size: 3)
0x59f (size: 3)
0x5a9 (size: 2)
0x5af (size: 3)
0x5b4 (size: 3)
0x5bc (size: 4)
0x5d0 (size: 5)
0x5db (size: 4)
0x5e6 (size: 4)
0x5f8 (size: 3)
0x602 (size: 2)
0x608 (size: 2)
0x610 (size: 4)
0x61c (size: 2)
0x624 (size: 3)
0x62c (size: 2)
0x634 (size: 2)
0x63a (size: 3)
0x63f (size: 4)
0x64a (size: 3)
0x657 (size: 5)
0x669 (size: 5)
0x674 (size: 2)
